<?xml version="1.0" encoding="utf-8"?>
<!-- Generator: Adobe Illustrator 22.0.1, SVG Export Plug-In . SVG Version: 6.00 Build 0)  -->
<svg version="1.1" id="Capa_1" xmlns="http://www.w3.org/2000/svg" xmlns:xlink="http://www.w3.org/1999/xlink" x="0px" y="0px"
	 viewBox="0 0 480 480" style="enable-background:new 0 0 480 480;" xml:space="preserve">
<style type="text/css">
	.st0{fill:#00539F;}
	.st1{fill:#EF3C39;}
</style>
<g>
	<g>
		<path class="st0" d="M472,146.4h-48v-24c0-22.1-17.9-40-40-40s-40,17.9-40,40v24H136v-24c0-22.1-17.9-40-40-40s-40,17.9-40,40v24
			H8c-4.4,0-8,3.6-8,8v288c0,4.4,3.6,8,8,8h464c4.4,0,8-3.6,8-8v-288C480,150,476.4,146.4,472,146.4z M360,122.4
			c0-13.3,10.7-24,24-24s24,10.7,24,24v24h-48V122.4z M72,122.4c0-13.3,10.7-24,24-24s24,10.7,24,24v24H72V122.4z M464,434.4H16
			v-224h448V434.4z M464,194.4H16v-32h448V194.4z"/>
	</g>
</g>
<g>
	<g>
		<path class="st1" d="M272,250.4h-64c-4.4,0-8,3.6-8,8v128c0,4.4,3.6,8,8,8h64c4.4,0,8-3.6,8-8v-128C280,254,276.4,250.4,272,250.4
			z M264,378.4h-48v-16h48V378.4z M264,346.4h-48v-16h48V346.4z M264,314.4h-48v-16h48V314.4z M264,282.4h-48v-16h48V282.4z"/>
	</g>
</g>
<g>
	<g>
		<path class="st0" d="M392,226.4c-30.9,0-56,25.1-56,56s25.1,56,56,56s56-25.1,56-56C448,251.5,422.9,226.4,392,226.4z M392,322.4
			c-22.1,0-40-17.9-40-40s17.9-40,40-40s40,17.9,40,40C432,304.5,414.1,322.4,392,322.4z"/>
	</g>
</g>
<g>
	<g>
		<polygon class="st0" points="400,274.4 400,258.4 384,258.4 384,274.4 368,274.4 368,290.4 384,290.4 384,306.4 400,306.4 
			400,290.4 416,290.4 416,274.4 		"/>
	</g>
</g>
<g>
	<g>
		<path class="st0" d="M88,226.4c-30.9,0-56,25.1-56,56s25.1,56,56,56s56-25.1,56-56C144,251.5,118.9,226.4,88,226.4z M88,322.4
			c-22.1,0-40-17.9-40-40s17.9-40,40-40s40,17.9,40,40C128,304.5,110.1,322.4,88,322.4z"/>
	</g>
</g>
<g>
	<g>
		<rect x="64" y="274.4" class="st0" width="48" height="16"/>
	</g>
</g>
<g>
	<g>
		<rect x="48" y="386.4" class="st0" width="16" height="16"/>
	</g>
</g>
<g>
	<g>
		<rect x="80" y="386.4" class="st0" width="16" height="16"/>
	</g>
</g>
<g>
	<g>
		<rect x="160" y="74.4" class="st1" width="16" height="16"/>
	</g>
</g>
<g>
	<g>
		<rect x="304" y="74.4" class="st1" width="16" height="16"/>
	</g>
</g>
<g>
	<g>
		<rect x="192" y="74.4" class="st1" width="16" height="16"/>
	</g>
</g>
<g>
	<g>
		<rect x="272" y="74.4" class="st1" width="16" height="16"/>
	</g>
</g>
<g>
	<g>
		<path class="st1" d="M260.1,59.5c-1.2-0.7-2.7-1.1-4.1-1.1h-16l14.4-19.2l-12.8-9.6l-24,32c-2.7,3.5-1.9,8.5,1.6,11.2
			c1.4,1,3.1,1.6,4.8,1.6h17.9l-16.7,27.9l13.7,8.2l24-40C265.1,66.7,263.9,61.8,260.1,59.5z"/>
	</g>
</g>
<g>
	<g>
		<rect x="336" y="74.4" class="st1" width="16" height="16"/>
	</g>
</g>
<g>
	<g>
		<rect x="128" y="74.4" class="st1" width="16" height="16"/>
	</g>
</g>
</svg>
