<?xml version="1.0" encoding="utf-8"?>
<!-- Generator: Adobe Illustrator 22.0.1, SVG Export Plug-In . SVG Version: 6.00 Build 0)  -->
<svg version="1.1" id="Capa_1" xmlns="http://www.w3.org/2000/svg" xmlns:xlink="http://www.w3.org/1999/xlink" x="0px" y="0px"
	 viewBox="0 0 204.2 204.2" style="enable-background:new 0 0 204.2 204.2;" xml:space="preserve">
<style type="text/css">
	.st0{fill:#00539F;stroke:#00539F;stroke-miterlimit:10;}
	.st1{fill:#EF3C39;stroke:#EF3C39;stroke-miterlimit:10;}
</style>
<g>
	<g>
		<path class="st0" d="M161.5,119.7l18.2-2.3l-0.3-2.1c-2-14.6-0.2-20.3-0.1-20.5l0.3-0.8l-0.3-0.8c-0.2-0.7-6.5-16.4-43.1-16.4
			l-1.5,0c-3.2-3.6-18.7-18.9-47.3-18.9c-21,0-44,8.4-68.4,25l-1,0.7l0.2,1.4c0.2,1.2,0.5,4.9-0.7,6.7c-0.5,0.8-1.2,1.1-2.3,1.1
			h-1.3l-0.3,1.6c-1.6,9.5-2.5,19.1,2.1,24.6l0.5,0.6h13l-0.4-2.4c-0.2-1.2-0.3-2.3-0.3-3.4c0-8.4,5.6-15.2,12.4-15.2
			c6.9,0,12.4,6.8,12.4,15.2c0,1.1-0.1,2.2-0.3,3.4l-0.5,2.4h83.6l-0.5-2.4c-0.2-1.1-0.3-2.2-0.3-3.4c0-8.1,6.2-15.2,13.2-15.2
			c4.8,0,8,3,9.8,5.6c2.6,3.8,4,9,3.5,12.9L161.5,119.7z M132.2,113.8c0,0.6,0,1.2,0.1,1.8H56.5c0.1-0.6,0.1-1.2,0.1-1.8
			c0-10.5-7-19.1-15.7-19.1c-8.6,0-15.7,8.6-15.7,19.1c0,0.6,0,1.2,0.1,1.8h-7.7c-2.9-4.3-2.2-11.9-1-19c1.4-0.3,2.6-1.1,3.4-2.4
			c1.7-2.5,1.8-6.2,1.6-8.5C45,69.9,67.2,61.9,87.4,61.9c29.9,0,45.4,18.2,45.5,18.4l0.5,0.6l0.7,0c31.7-0.5,40.3,10.6,42,13.5
			c-0.6,2.3-1.5,8.3-0.1,19.6l-10.8,1.4c0-4.6-1.7-9.7-4.3-13.6c-2.2-3.2-6.1-7-12.2-7C139.7,94.7,132.2,103.5,132.2,113.8z"/>
		<path class="st1" d="M148.6,124.1c-5.4,0-9.8,3.9-10.6,9.2h-29.6c-0.9-3.1-3.8-5.4-7.1-5.4H81.5c-3.3,0-6.2,2.2-7.1,5.4H49.6
			c-0.6-5.5-5.2-9.7-10.8-9.7c-6,0-10.9,4.9-10.9,10.9s4.9,10.9,10.9,10.9c5.2,0,9.6-3.6,10.6-8.7h24.8c0.6,3.6,3.7,6.2,7.3,6.2
			h19.7c3.7,0,6.7-2.6,7.3-6.2H138c0.9,5.2,5.3,9,10.6,9c6,0,10.8-4.8,10.8-10.8C159.4,128.9,154.5,124.1,148.6,124.1z M148.6,142.3
			c-4.1,0-7.5-3.4-7.5-7.5c0-4.1,3.4-7.5,7.5-7.5c4.1,0,7.5,3.4,7.5,7.5C156.1,139,152.7,142.3,148.6,142.3z M78,133.3
			c0.7-1.3,2.1-2.1,3.6-2.1h19.7c1.5,0,2.8,0.8,3.6,2.1H78z M101.3,139.5H81.6c-1.8,0-3.4-1.2-3.9-2.9h27.6
			C104.7,138.3,103.1,139.5,101.3,139.5z M38.8,126.8c4.2,0,7.6,3.4,7.6,7.6c0,4.2-3.4,7.6-7.6,7.6s-7.6-3.4-7.6-7.6
			C31.3,130.2,34.7,126.8,38.8,126.8z"/>
		<path class="st0" d="M36.7,79.4l-6.6,3.8h42.4V66.2l-1.9,0.5C51.2,71.3,36.9,79.3,36.7,79.4z M45.7,79.2c5.9-2.6,14-5.8,23.6-8.2
			v8.2H45.7z"/>
		<path class="st0" d="M87.7,64.4c-3.3,0-6.5,0.3-9.7,0.9l-1.4,0.2v17.7h56.9l-4.2-3.6C129.2,79.4,111.5,64.4,87.7,64.4z M87.7,68.3
			c15.4,0,28.4,6.8,34.8,10.9H79.9V68.9C82.4,68.5,85.1,68.3,87.7,68.3z"/>
	</g>
</g>
</svg>
