<?xml version="1.0" encoding="utf-8"?>
<!-- Generator: Adobe Illustrator 22.0.1, SVG Export Plug-In . SVG Version: 6.00 Build 0)  -->
<svg version="1.1" id="Layer_1" xmlns="http://www.w3.org/2000/svg" xmlns:xlink="http://www.w3.org/1999/xlink" x="0px" y="0px"
	 viewBox="0 0 488 488" style="enable-background:new 0 0 488 488;" xml:space="preserve">
<style type="text/css">
	.st0{fill:#00539F;}
	.st1{fill:#EF3C39;}
</style>
<path class="st0" d="M204,344h-8v-75.3c5.2-8.7,8-18.6,8-28.7c0-1.5-0.1-3-0.2-4.5l56-125.8c2-0.6,4-1.3,6-2.1l50.4,50.3
	c0,0.7-0.2,1.4-0.2,2.1c0,19,13.4,35.4,32,39.2v20.3l-36.1,21.7c-2.4,1.4-3.9,4-3.8,6.8v24c0,2.1,0.8,4.2,2.3,5.7l16,16l11.3-11.3
	L324,268.7v-16.2l32-19.2l32,19.2v16.2l-13.7,13.7l11.3,11.3l16-16c1.5-1.5,2.3-3.5,2.3-5.7v-24c0-2.8-1.5-5.4-3.9-6.9L364,219.5
	v-20.3c18.8-3.8,32.2-20.4,32-39.5c-0.2-19.1-13.9-35.5-32.7-38.9l-64.8-77.4c-6.3-27.3-31.8-45.7-59.7-43.1
	c-27.9,2.6-49.6,25.5-50.6,53.5l-82.5,149.8c-15.8,18.2-18.1,44.5-5.6,65.2V344h-32V230.6c11-3.9,17.6-15.2,15.7-26.7
	c-2-11.5-12-19.9-23.7-19.9c-11.7,0-21.7,8.4-23.6,19.9c-2,11.5,4.6,22.8,15.7,26.7V344h-40c-4.4,0-8,3.6-8,8v128c0,4.4,3.6,8,8,8
	h192c4.4,0,8-3.6,8-8V352C212,347.6,208.5,344,204,344z M380,160c0,13.3-10.7,24-24,24c-13.3,0-24-10.7-24-24c0-13.3,10.7-24,24-24
	C369.3,136,380,146.8,380,160z M298.6,68.4l45,53.8c-9.4,3.1-17.4,9.6-22.3,18.2l-41.5-41.4C289.3,91.2,295.9,80.4,298.6,68.4z
	 M244,16.1c22.1,0,40,17.9,40,40c0,22.1-17.9,40-40,40c-22.1,0-40-17.9-40-40C204.1,34,222,16.1,244,16.1z M192.8,78.5
	c8.5,19.4,27.4,32.4,48.6,33.4l-44.7,100.4c-12.5-22.2-38.5-33-63.1-26.3L192.8,78.5z M148,200c22.1,0,40,17.9,40,40
	c0,22.1-17.9,40-40,40c-22.1,0-40-17.9-40-40C108.1,218,126,200.1,148,200z M180,285.9V344h-64v-58.1
	C135.2,299.4,160.8,299.4,180,285.9z M60.1,200c4.4,0,8,3.6,8,8c0,4.4-3.6,8-8,8s-8-3.6-8-8C52.1,203.6,55.6,200,60.1,200z M196,472
	h-176V360h176V472z"/>
<path class="st1" d="M444,408h-32v-32h16v16h16v-48h-16v16h-16v-16c0-2.1-0.8-4.2-2.3-5.7l-24-24c-1.5-1.5-3.5-2.3-5.7-2.3h-48
	c-2.1,0-4.2,0.8-5.7,2.3l-24,24c-1.5,1.5-2.3,3.5-2.3,5.7v64h-32c-22.1,0-40,17.9-40,40c0,22.1,17.9,40,40,40h176
	c22.1,0,40-17.9,40-40C484,425.9,466.1,408,444,408z M316,347.3l19.3-19.3h41.4l19.3,19.3V408h-80V347.3z M444,472H268
	c-13.3,0-24-10.7-24-24c0-13.3,10.7-24,24-24h176c13.3,0,24,10.7,24,24C468,461.3,457.3,472,444,472z"/>
<path class="st1" d="M268,440h16v16h-16V440z"/>
<path class="st1" d="M300,440h16v16h-16V440z"/>
<path class="st1" d="M332,440h16v16h-16V440z"/>
<path class="st1" d="M364,440h16v16h-16V440z"/>
<path class="st1" d="M396,440h16v16h-16V440z"/>
<path class="st1" d="M428,440h16v16h-16V440z"/>
<path class="st0" d="M44.1,440h16v16h-16V440z"/>
<path class="st0" d="M76.1,440h16v16h-16V440z"/>
<path class="st0" d="M244,80.1c13.3,0,24-10.7,24-24c0-13.3-10.7-24-24-24c-13.3,0-24,10.7-24,24C220,69.3,230.8,80.1,244,80.1z
	 M244,48.1c4.4,0,8,3.6,8,8s-3.6,8-8,8c-4.4,0-8-3.6-8-8S239.6,48.1,244,48.1z"/>
<path class="st0" d="M148,264c13.3,0,24-10.7,24-24c0-13.3-10.7-24-24-24c-13.3,0-24,10.7-24,24C124,253.3,134.8,264,148,264z
	 M148,232c4.4,0,8,3.6,8,8c0,4.4-3.6,8-8,8c-4.4,0-8-3.6-8-8C140,235.6,143.6,232,148,232z"/>
<path class="st0" d="M348,152h16v16h-16V152z"/>
<path class="st1" d="M332,360h16v32h-16V360z"/>
<path class="st1" d="M364,360h16v32h-16V360z"/>
<path class="st0" d="M96.1,123.8c-22.3-13-49.8-13-72.1,0l8.1,13.8c17.3-10.1,38.6-10.1,55.9,0L96.1,123.8z"/>
<path class="st0" d="M15.6,103.3c28-13.9,60.9-13.9,88.8,0l7.2-14.3C79.1,72.8,41,72.8,8.5,88.9L15.6,103.3z"/>
<path class="st0" d="M40.5,152.9l7.2,14.3c7.8-3.9,17-3.9,24.8,0l7.2-14.3C67.3,146.8,52.8,146.8,40.5,152.9z"/>
<path class="st0" d="M140,309.3h16V328h-16V309.3z"/>
<path class="st0" d="M172.9,164.5l24-48l14.3,7.2l-24,48L172.9,164.5z"/>
</svg>
